{
  "log": {
    "version": "1.2",
    "creator": {
      "name": "HttpRecorder",
      "version": "1.0.0.0"
    },
    "entries": [
      {
        "startedDateTime": "2019-03-28T13:17:16.578084-04:00",
        "time": 294,
        "request": {
          "method": "GET",
          "url": "https://reqres.in/api/user",
          "queryString": [],
          "httpVersion": "HTTP/2.0",
          "cookies": [],
          "headers": [],
          "headersSize": -1,
          "bodySize": -1
        },
        "response": {
          "status": 200,
          "statusText": "OK",
          "content": {
            "size": 312,
            "mimeType": "application/json; charset=utf-8",
            "text": "{\"page\":1,\"per_page\":3,\"total\":12,\"total_pages\":4,\"data\":[{\"id\":1,\"name\":\"cerulean\",\"year\":2000,\"color\":\"#98B2D1\",\"pantone_value\":\"15-4020\"},{\"id\":2,\"name\":\"fuchsia rose\",\"year\":2001,\"color\":\"#C74375\",\"pantone_value\":\"17-2031\"},{\"id\":3,\"name\":\"true red\",\"year\":2002,\"color\":\"#BF1932\",\"pantone_value\":\"19-1664\"}]}"
          },
          "redirectUrl": "",
          "httpVersion": "HTTP/1.1",
          "cookies": [],
          "headers": [
            {
              "name": "Date",
              "value": "Thu, 28 Mar 2019 17:17:25 GMT"
            },
            {
              "name": "Connection",
              "value": "keep-alive"
            },
            {
              "name": "Set-Cookie",
              "value": "__cfduid=d85edcd8fe4f508c3419af00cc06390d11553793445; expires=Fri, 27-Mar-20 17:17:25 GMT; path=/; domain=.reqres.in; HttpOnly"
            },
            {
              "name": "X-Powered-By",
              "value": "Express"
            },
            {
              "name": "Access-Control-Allow-Origin",
              "value": "*"
            },
            {
              "name": "ETag",
              "value": "W/\"138-JxfoRpyrgR+3MwPzWk39icdKPEA\""
            },
            {
              "name": "Expect-CT",
              "value": "max-age=604800, report-uri=\"https://report-uri.cloudflare.com/cdn-cgi/beacon/expect-ct\""
            },
            {
              "name": "Server",
              "value": "cloudflare"
            },
            {
              "name": "CF-RAY",
              "value": "4beb41ebaab93f89-YUL"
            },
            {
              "name": "Content-Type",
              "value": "application/json; charset=utf-8"
            },
            {
              "name": "Content-Length",
              "value": "312"
            }
          ],
          "headersSize": -1,
          "bodySize": 312
        },
        "cache": {},
        "timings": {
          "send": 0.0,
          "wait": 0.0,
          "receive": 0.0
        }
      }
    ]
  }
}